% $ biblatex auxiliary file $
% $ biblatex bbl format version 3.2 $
% Do not modify the above lines!
%
% This is an auxiliary file used by the 'biblatex' package.
% This file may safely be deleted. It will be recreated by
% biber as required.
%
\begingroup
\makeatletter
\@ifundefined{ver@biblatex.sty}
  {\@latex@error
     {Missing 'biblatex' package}
     {The bibliography requires the 'biblatex' package.}
      \aftergroup\endinput}
  {}
\endgroup


\refsection{0}
  \datalist[entry]{none/global//global/global}
    \entry{vlan}{book}{}
      \name{author}{1}{}{%
        {{hash=b99c66e8585dd9218603aec8fe9bca6e}{%
           family={DORDOIGNE},
           familyi={D\bibinitperiod},
           given={José},
           giveni={J\bibinitperiod}}}%
      }
      \list{publisher}{1}{%
        {Editions ENI}%
      }
      \strng{namehash}{b99c66e8585dd9218603aec8fe9bca6e}
      \strng{fullhash}{b99c66e8585dd9218603aec8fe9bca6e}
      \strng{bibnamehash}{b99c66e8585dd9218603aec8fe9bca6e}
      \strng{authorbibnamehash}{b99c66e8585dd9218603aec8fe9bca6e}
      \strng{authornamehash}{b99c66e8585dd9218603aec8fe9bca6e}
      \strng{authorfullhash}{b99c66e8585dd9218603aec8fe9bca6e}
      \field{sortinit}{1}
      \field{sortinithash}{4f6aaa89bab872aa0999fec09ff8e98a}
      \field{labelnamesource}{author}
      \field{labeltitlesource}{title}
      \field{title}{Réseaux informatiques - Notions fondamentales}
      \field{year}{2019}
    \endentry
    \entry{ovs}{online}{}
      \field{sortinit}{2}
      \field{sortinithash}{8b555b3791beccb63322c22f3320aa9a}
      \field{labeltitlesource}{title}
      \field{title}{What Is Open vSwitch?}
      \field{year}{2016}
      \verb{urlraw}
      \verb https://docs.openvswitch.org/en/latest/intro/what-is-ovs/
      \endverb
      \verb{url}
      \verb https://docs.openvswitch.org/en/latest/intro/what-is-ovs/
      \endverb
    \endentry
    \entry{openFlow}{online}{}
      \field{sortinit}{5}
      \field{sortinithash}{20e9b4b0b173788c5dace24730f47d8c}
      \field{labeltitlesource}{title}
      \field{month}{08}
      \field{title}{Open vSwitch : un commutateur distribué libre pour les clouds virtuels}
      \field{year}{2010}
      \verb{urlraw}
      \verb https://www.lemagit.fr/actualites/2240189280/Open-vSwitch-un-commutateur-distribue-libre-pour-les-clouds-virtuels
      \endverb
      \verb{url}
      \verb https://www.lemagit.fr/actualites/2240189280/Open-vSwitch-un-commutateur-distribue-libre-pour-les-clouds-virtuels
      \endverb
    \endentry
    \entry{tinycore}{online}{}
      \field{sortinit}{6}
      \field{sortinithash}{b33bc299efb3c36abec520a4c896a66d}
      \field{labeltitlesource}{title}
      \field{month}{02}
      \field{title}{Tiny Core Linux}
      \field{year}{2021}
      \verb{urlraw}
      \verb https://fr.wikipedia.org/wiki/Tiny_Core_Linux
      \endverb
      \verb{url}
      \verb https://fr.wikipedia.org/wiki/Tiny_Core_Linux
      \endverb
    \endentry
    \entry{ryu}{online}{}
      \field{sortinit}{7}
      \field{sortinithash}{108d0be1b1bee9773a1173443802c0a3}
      \field{labeltitlesource}{title}
      \field{title}{Ryu SDN Framework}
      \field{year}{2017}
      \verb{urlraw}
      \verb https://ryu-sdn.org/
      \endverb
      \verb{url}
      \verb https://ryu-sdn.org/
      \endverb
    \endentry
    \entry{venv}{online}{}
      \field{sortinit}{8}
      \field{sortinithash}{a231b008ebf0ecbe0b4d96dcc159445f}
      \field{labeltitlesource}{title}
      \field{month}{05}
      \field{title}{Virtualenv}
      \field{year}{2022}
      \verb{urlraw}
      \verb https://virtualenv.pypa.io/en/latest/
      \endverb
      \verb{url}
      \verb https://virtualenv.pypa.io/en/latest/
      \endverb
    \endentry
  \enddatalist
\endrefsection
\endinput

