\contentsline {chapter}{Introduction}{2}{chapter*.2}%
\contentsline {chapter}{Virtual LAN (VLAN)}{3}{chapter*.3}%
\contentsline {section}{Réalisation de VLANs et d'un trunk}{4}{figure.caption.4}%
\contentsline {section}{Conclusion}{6}{figure.caption.6}%
\contentsline {chapter}{OpenVirtualSwitch (OVS)}{7}{chapter*.7}%
\contentsline {section}{Installation de OpenVirtualSwitch}{8}{figure.caption.9}%
\contentsline {section}{Mise en place de notre premier switch virtuel}{9}{figure.caption.9}%
\contentsline {chapter}{Tinycore}{10}{chapter*.13}%
\contentsline {section}{Mise en place de TinyCore}{11}{figure.caption.15}%
\contentsline {section}{Connexion des VM à OVS}{13}{figure.caption.17}%
\contentsline {chapter}{Utilisation des VLANs avec OVS}{15}{chapter*.19}%
\contentsline {section}{Création d'une architecture simple}{16}{chapter*.19}%
\contentsline {section}{Connexion des VM}{17}{figure.caption.20}%
\contentsline {chapter}{Ryu}{18}{chapter*.22}%
\contentsline {section}{Notre premier programme Ryu}{19}{figure.caption.23}%
\contentsline {chapter}{Environnement de travail}{21}{chapter*.25}%
\contentsline {section}{Mise en place d'un environnement python}{22}{figure.caption.26}%
