[0] Config.pm:305> INFO - This is Biber 2.17
[0] Config.pm:308> INFO - Logfile is 'article.blg'
[43] biber:340> INFO - === Thu May 12, 2022, 21:07:40
[52] Biber.pm:418> INFO - Reading 'article.bcf'
[94] Biber.pm:972> INFO - Found 6 citekeys in bib section 0
[102] Biber.pm:4383> INFO - Processing section 0
[109] Biber.pm:4574> INFO - Looking for bibtex file 'article.bib' for section 0
[109] bibtex.pm:1713> INFO - LaTeX decoding ...
[112] bibtex.pm:1518> INFO - Found BibTeX data source 'article.bib'
[136] UCollate.pm:68> INFO - Overriding locale 'en-US' defaults 'normalization = NFD' with 'normalization = prenormalized'
[137] UCollate.pm:68> INFO - Overriding locale 'en-US' defaults 'variable = shifted' with 'variable = non-ignorable'
[137] Biber.pm:4203> INFO - Sorting list 'none/global//global/global' of type 'entry' with template 'none' and locale 'en-US'
[137] Biber.pm:4209> INFO - No sort tailoring available for locale 'en-US'
[141] bbl.pm:654> INFO - Writing 'article.bbl' with encoding 'UTF-8'
[142] bbl.pm:757> INFO - Output to article.bbl
